pid_piezo/pid_piezo.sim/sim_1/behav/xsim/core_logic_sim.vcd
$date
   Mon Jun  8 21:28:04 2026
$end
$version
  2020.1
$end
$timescale
  1ps
$end
$scope module tb_core_logic $end
$var reg 1 ! clk_i $end
$var reg 1 " rstn_i $end
$var reg 1 # arm_i $end
$var reg 1 $ trigger_i $end
$var reg 14 % ramp_min_val [13:0] $end
$var reg 14 & ramp_max_val [13:0] $end
$var reg 14 ' ramp_dac_out [13:0] $end
$var reg 32 ( test_dly_1 [31:0] $end
$var reg 32 ) test_dly_2 [31:0] $end
$var reg 32 * test_dly_3 [31:0] $end
$var reg 32 + test_dly_4 [31:0] $end
$var reg 14 , test_peak_amp [13:0] $end
$var reg 14 - test_base_amp [13:0] $end
$var reg 32 . test_pulse_width [31:0] $end
$var reg 1 / test_gen_done $end
$var reg 14 0 test_dac_out [13:0] $end
$var reg 14 1 det_threshold [13:0] $end
$var reg 1 2 det_done $end
$var reg 3 3 det_peak_count [2:0] $end
$var reg 32 4 det_ts_1 [31:0] $end
$var reg 32 5 det_ts_2 [31:0] $end
$var reg 32 6 det_ts_3 [31:0] $end
$var reg 32 7 det_ts_4 [31:0] $end
$scope module dut_ramp $end
$var wire 1 8 clk_i $end
$var wire 1 9 rstn_i $end
$var wire 1 : arm_i $end
$var wire 1 ; trigger_i $end
$var wire 14 < min_val_i [13:0] $end
$var wire 14 = max_val_i [13:0] $end
$var reg 14 ' dac_dat_o [13:0] $end
$var reg 2 > state [1:0] $end
$upscope $end
$scope module dut_test_gen $end
$var wire 1 ? clk_i $end
$var wire 1 @ rstn_i $end
$var wire 1 A arm_i $end
$var wire 1 B trigger_i $end
$var wire 32 C dly_1_i [31:0] $end
$var wire 32 D dly_2_i [31:0] $end
$var wire 32 E dly_3_i [31:0] $end
$var wire 32 F dly_4_i [31:0] $end
$var wire 14 G peak_amp_i [13:0] $end
$var wire 14 H base_amp_i [13:0] $end
$var wire 32 I pulse_width_i [31:0] $end
$var reg 1 / done_o $end
$var reg 14 0 dac_dat_o [13:0] $end
$var reg 32 J counter [31:0] $end
$var reg 1 K running $end
$var reg 32 L max_dly_12 [31:0] $end
$var reg 32 M max_dly_34 [31:0] $end
$var reg 32 N final_dly [31:0] $end
$var reg 32 O finish_time [31:0] $end
$var reg 1 P is_pulse $end
$upscope $end
$scope module dut_detector $end
$var wire 1 Q clk_i $end
$var wire 1 R rstn_i $end
$var wire 1 S arm_i $end
$var wire 1 T trigger_i $end
$var wire 14 U adc_dat_i [13:0] $end
$var wire 14 V threshold_i [13:0] $end
$var reg 1 2 done_o $end
$var reg 3 3 peak_count_o [2:0] $end
$var reg 32 4 ts_1_o [31:0] $end
$var reg 32 5 ts_2_o [31:0] $end
$var reg 32 6 ts_3_o [31:0] $end
$var reg 32 7 ts_4_o [31:0] $end
$var reg 32 W counter [31:0] $end
$var reg 14 X prev_adc [13:0] $end
$var reg 1 Y running $end
$upscope $end
$scope begin Block92_7 $end
$upscope $end
$upscope $end
$enddefinitions $end
#0
$dumpvars
0!
0"
0#
0$
b0 %
b1111 &
bx '
b10100 (
b101000 )
b1010000 *
b10010110 +
b1111111111111 ,
b0 -
b11 .
x/
bx 0
b111111111111 1
x2
bx 3
bx 4
bx 5
bx 6
bx 7
08
09
0:
0;
b0 <
b1111 =
bx >
0?
0@
0A
0B
b10100 C
b101000 D
b1010000 E
b10010110 F
b1111111111111 G
b0 H
b11 I
bx J
xK
b101000 L
b10010110 M
b10010110 N
b10011001 O
xP
0Q
0R
0S
0T
bx U
b111111111111 V
bx W
bx X
xY
$end
#4000
1!
b0 '
0/
b0 0
02
b0 3
b0 4
b0 5
b0 6
b0 7
18
b0 >
1?
b0 J
0K
0P
1Q
b0 U
b0 W
b0 X
0Y
#8000
0!
08
0?
0Q
#12000
1!
02
18
1?
1Q
#16000
0!
1"
08
19
0?
1@
0Q
1R
#20000
1!
02
18
1?
1Q
#24000
0!
08
0?
0Q
#28000
1!
02
18
1?
1Q
#32000
0!
1#
08
1:
0?
1A
0Q
1S
#36000
1!
18
1?
1Q
#40000
0!
08
0?
0Q
#44000
1!
18
1?
1Q
#48000
0!
08
0?
0Q
#52000
1!
18
1?
1Q
#56000
0!
1$
08
1;
0?
1B
0Q
1T
#60000
1!
02
18
b1 >
1?
1K
1Q
1Y
#64000
0!
0$
08
0;
0?
0B
0Q
0T
#68000
1!
b1 '
18
1?
b1 J
1Q
b1 W
#72000
0!
08
0?
0Q
#76000
1!
b10 '
18
1?
b10 J
1Q
b10 W
#80000
0!
08
0?
0Q
#84000
1!
b11 '
18
1?
b11 J
1Q
b11 W
#88000
0!
08
0?
0Q
#92000
1!
b100 '
18
1?
b100 J
1Q
b100 W
#96000
0!
08
0?
0Q
#100000
1!
b101 '
18
1?
b101 J
1Q
b101 W
#104000
0!
08
0?
0Q
#108000
1!
b110 '
18
1?
b110 J
1Q
b110 W
#112000
0!
08
0?
0Q
#116000
1!
b111 '
18
1?
b111 J
1Q
b111 W
#120000
0!
08
0?
0Q
#124000
1!
b1000 '
18
1?
b1000 J
1Q
b1000 W
#128000
0!
08
0?
0Q
#132000
1!
b1001 '
18
1?
b1001 J
1Q
b1001 W
#136000
0!
08
0?
0Q
#140000
1!
b1010 '
18
1?
b1010 J
1Q
b1010 W
#144000
0!
08
0?
0Q
#148000
1!
b1011 '
18
1?
b1011 J
1Q
b1011 W
#152000
0!
08
0?
0Q
#156000
1!
b1100 '
18
1?
b1100 J
1Q
b1100 W
#160000
0!
08
0?
0Q
#164000
1!
b1101 '
18
1?
b1101 J
1Q
b1101 W
#168000
0!
08
0?
0Q
#172000
1!
b1110 '
18
1?
b1110 J
1Q
b1110 W
#176000
0!
08
0?
0Q
#180000
1!
b1111 '
18
1?
b1111 J
1Q
b1111 W
#184000
0!
08
0?
0Q
#188000
1!
b1110 '
18
b10 >
1?
b10000 J
1Q
b10000 W
#192000
0!
08
0?
0Q
#196000
1!
b1101 '
18
1?
b10001 J
1Q
b10001 W
#200000
0!
08
0?
0Q
#204000
1!
b1100 '
18
1?
b10010 J
1Q
b10010 W
#208000
0!
08
0?
0Q
#212000
1!
b1011 '
18
1?
b10011 J
1Q
b10011 W
#216000
0!
08
0?
0Q
#220000
1!
b1010 '
18
1?
b10100 J
1P
1Q
b10100 W
#224000
0!
08
0?
0Q
#228000
1!
b1001 '
b1111111111111 0
18
1?
b10101 J
1Q
b1111111111111 U
b10101 W
#232000
0!
08
0?
0Q
#236000
1!
b1000 '
b1 3
b10101 4
18
1?
b10110 J
1Q
b10110 W
b1111111111111 X
#240000
0!
08
0?
0Q
#244000
1!
b111 '
18
1?
b10111 J
0P
1Q
b10111 W
#248000
0!
08
0?
0Q
#252000
1!
b110 '
b0 0
18
1?
b11000 J
1Q
b0 U
b11000 W
#256000
0!
08
0?
0Q
#260000
1!
b101 '
18
1?
b11001 J
1Q
b11001 W
b0 X
#264000
0!
08
0?
0Q
#268000
1!
b100 '
18
1?
b11010 J
1Q
b11010 W
#272000
0!
08
0?
0Q
#276000
1!
b11 '
18
1?
b11011 J
1Q
b11011 W
#280000
0!
08
0?
0Q
#284000
1!
b10 '
18
1?
b11100 J
1Q
b11100 W
#288000
0!
08
0?
0Q
#292000
1!
b1 '
18
1?
b11101 J
1Q
b11101 W
#296000
0!
08
0?
0Q
#300000
1!
b0 '
18
1?
b11110 J
1Q
b11110 W
#304000
0!
08
0?
0Q
#308000
1!
b1 '
18
b1 >
1?
b11111 J
1Q
b11111 W
#312000
0!
08
0?
0Q
#316000
1!
b10 '
18
1?
b100000 J
1Q
b100000 W
#320000
0!
08
0?
0Q
#324000
1!
b11 '
18
1?
b100001 J
1Q
b100001 W
#328000
0!
08
0?
0Q
#332000
1!
b100 '
18
1?
b100010 J
1Q
b100010 W
#336000
0!
08
0?
0Q
#340000
1!
b101 '
18
1?
b100011 J
1Q
b100011 W
#344000
0!
08
0?
0Q
#348000
1!
b110 '
18
1?
b100100 J
1Q
b100100 W
#352000
0!
08
0?
0Q
#356000
1!
b111 '
18
1?
b100101 J
1Q
b100101 W
#360000
0!
08
0?
0Q
#364000
1!
b1000 '
18
1?
b100110 J
1Q
b100110 W
#368000
0!
08
0?
0Q
#372000
1!
b1001 '
18
1?
b100111 J
1Q
b100111 W
#376000
0!
08
0?
0Q
#380000
1!
b1010 '
18
1?
b101000 J
1P
1Q
b101000 W
#384000
0!
08
0?
0Q
#388000
1!
b1011 '
b1111111111111 0
18
1?
b101001 J
1Q
b1111111111111 U
b101001 W
#392000
0!
08
0?
0Q
#396000
1!
b1100 '
b10 3
b101001 5
18
1?
b101010 J
1Q
b101010 W
b1111111111111 X
#400000
0!
08
0?
0Q
#404000
1!
b1101 '
18
1?
b101011 J
0P
1Q
b101011 W
#408000
0!
08
0?
0Q
#412000
1!
b1110 '
b0 0
18
1?
b101100 J
1Q
b0 U
b101100 W
#416000
0!
08
0?
0Q
#420000
1!
b1111 '
18
1?
b101101 J
1Q
b101101 W
b0 X
#424000
0!
08
0?
0Q
#428000
1!
b1110 '
18
b10 >
1?
b101110 J
1Q
b101110 W
#432000
0!
08
0?
0Q
#436000
1!
b1101 '
18
1?
b101111 J
1Q
b101111 W
#440000
0!
08
0?
0Q
#444000
1!
b1100 '
18
1?
b110000 J
1Q
b110000 W
#448000
0!
08
0?
0Q
#452000
1!
b1011 '
18
1?
b110001 J
1Q
b110001 W
#456000
0!
08
0?
0Q
#460000
1!
b1010 '
18
1?
b110010 J
1Q
b110010 W
#464000
0!
08
0?
0Q
#468000
1!
b1001 '
18
1?
b110011 J
1Q
b110011 W
#472000
0!
08
0?
0Q
#476000
1!
b1000 '
18
1?
b110100 J
1Q
b110100 W
#480000
0!
08
0?
0Q
#484000
1!
b111 '
18
1?
b110101 J
1Q
b110101 W
#488000
0!
08
0?
0Q
#492000
1!
b110 '
18
1?
b110110 J
1Q
b110110 W
#496000
0!
08
0?
0Q
#500000
1!
b101 '
18
1?
b110111 J
1Q
b110111 W
#504000
0!
08
0?
0Q
#508000
1!
b100 '
18
1?
b111000 J
1Q
b111000 W
#512000
0!
08
0?
0Q
#516000
1!
b11 '
18
1?
b111001 J
1Q
b111001 W
#520000
0!
08
0?
0Q
#524000
1!
b10 '
18
1?
b111010 J
1Q
b111010 W
#528000
0!
08
0?
0Q
#532000
1!
b1 '
18
1?
b111011 J
1Q
b111011 W
#536000
0!
08
0?
0Q
#540000
1!
b0 '
18
1?
b111100 J
1Q
b111100 W
#544000
0!
08
0?
0Q
#548000
1!
b1 '
18
b1 >
1?
b111101 J
1Q
b111101 W
#552000
0!
08
0?
0Q
#556000
1!
b10 '
18
1?
b111110 J
1Q
b111110 W
#560000
0!
08
0?
0Q
#564000
1!
b11 '
18
1?
b111111 J
1Q
b111111 W
#568000
0!
08
0?
0Q
#572000
1!
b100 '
18
1?
b1000000 J
1Q
b1000000 W
#576000
0!
08
0?
0Q
#580000
1!
b101 '
18
1?
b1000001 J
1Q
b1000001 W
#584000
0!
08
0?
0Q
#588000
1!
b110 '
18
1?
b1000010 J
1Q
b1000010 W
#592000
0!
08
0?
0Q
#596000
1!
b111 '
18
1?
b1000011 J
1Q
b1000011 W
#600000
0!
08
0?
0Q
#604000
1!
b1000 '
18
1?
b1000100 J
1Q
b1000100 W
#608000
0!
08
0?
0Q
#612000
1!
b1001 '
18
1?
b1000101 J
1Q
b1000101 W
#616000
0!
08
0?
0Q
#620000
1!
b1010 '
18
1?
b1000110 J
1Q
b1000110 W
#624000
0!
08
0?
0Q
#628000
1!
b1011 '
18
1?
b1000111 J
1Q
b1000111 W
#632000
0!
08
0?
0Q
#636000
1!
b1100 '
18
1?
b1001000 J
1Q
b1001000 W
#640000
0!
08
0?
0Q
#644000
1!
b1101 '
18
1?
b1001001 J
1Q
b1001001 W
#648000
0!
08
0?
0Q
#652000
1!
b1110 '
18
1?
b1001010 J
1Q
b1001010 W
#656000
0!
08
0?
0Q
#660000
1!
b1111 '
18
1?
b1001011 J
1Q
b1001011 W
#664000
0!
08
0?
0Q
#668000
1!
b1110 '
18
b10 >
1?
b1001100 J
1Q
b1001100 W
#672000
0!
08
0?
0Q
#676000
1!
b1101 '
18
1?
b1001101 J
1Q
b1001101 W
#680000
0!
08
0?
0Q
#684000
1!
b1100 '
18
1?
b1001110 J
1Q
b1001110 W
#688000
0!
08
0?
0Q
#692000
1!
b1011 '
18
1?
b1001111 J
1Q
b1001111 W
#696000
0!
08
0?
0Q
#700000
1!
b1010 '
18
1?
b1010000 J
1P
1Q
b1010000 W
#704000
0!
08
0?
0Q
#708000
1!
b1001 '
b1111111111111 0
18
1?
b1010001 J
1Q
b1111111111111 U
b1010001 W
#712000
0!
08
0?
0Q
#716000
1!
b1000 '
b11 3
b1010001 6
18
1?
b1010010 J
1Q
b1010010 W
b1111111111111 X
#720000
0!
08
0?
0Q
#724000
1!
b111 '
18
1?
b1010011 J
0P
1Q
b1010011 W
#728000
0!
08
0?
0Q
#732000
1!
b110 '
b0 0
18
1?
b1010100 J
1Q
b0 U
b1010100 W
#736000
0!
08
0?
0Q
#740000
1!
b101 '
18
1?
b1010101 J
1Q
b1010101 W
b0 X
#744000
0!
08
0?
0Q
#748000
1!
b100 '
18
1?
b1010110 J
1Q
b1010110 W
#752000
0!
08
0?
0Q
#756000
1!
b11 '
18
1?
b1010111 J
1Q
b1010111 W
#760000
0!
08
0?
0Q
#764000
1!
b10 '
18
1?
b1011000 J
1Q
b1011000 W
#768000
0!
08
0?
0Q
#772000
1!
b1 '
18
1?
b1011001 J
1Q
b1011001 W
#776000
0!
08
0?
0Q
#780000
1!
b0 '
18
1?
b1011010 J
1Q
b1011010 W
#784000
0!
08
0?
0Q
#788000
1!
b1 '
18
b1 >
1?
b1011011 J
1Q
b1011011 W
#792000
0!
08
0?
0Q
#796000
1!
b10 '
18
1?
b1011100 J
1Q
b1011100 W
#800000
0!
08
0?
0Q
#804000
1!
b11 '
18
1?
b1011101 J
1Q
b1011101 W
#808000
0!
08
0?
0Q
#812000
1!
b100 '
18
1?
b1011110 J
1Q
b1011110 W
#816000
0!
08
0?
0Q
#820000
1!
b101 '
18
1?
b1011111 J
1Q
b1011111 W
#824000
0!
08
0?
0Q
#828000
1!
b110 '
18
1?
b1100000 J
1Q
b1100000 W
#832000
0!
08
0?
0Q
#836000
1!
b111 '
18
1?
b1100001 J
1Q
b1100001 W
#840000
0!
08
0?
0Q
#844000
1!
b1000 '
18
1?
b1100010 J
1Q
b1100010 W
#848000
0!
08
0?
0Q
#852000
1!
b1001 '
18
1?
b1100011 J
1Q
b1100011 W
#856000
0!
08
0?
0Q
#860000
1!
b1010 '
18
1?
b1100100 J
1Q
b1100100 W
#864000
0!
08
0?
0Q
#868000
1!
b1011 '
18
1?
b1100101 J
1Q
b1100101 W
#872000
0!
08
0?
0Q
#876000
1!
b1100 '
18
1?
b1100110 J
1Q
b1100110 W
#880000
0!
08
0?
0Q
#884000
1!
b1101 '
18
1?
b1100111 J
1Q
b1100111 W
#888000
0!
08
0?
0Q
#892000
1!
b1110 '
18
1?
b1101000 J
1Q
b1101000 W
#896000
0!
08
0?
0Q
#900000
1!
b1111 '
18
1?
b1101001 J
1Q
b1101001 W
#904000
0!
08
0?
0Q
#908000
1!
b1110 '
18
b10 >
1?
b1101010 J
1Q
b1101010 W
#912000
0!
08
0?
0Q
#916000
1!
b1101 '
18
1?
b1101011 J
1Q
b1101011 W
#920000
0!
08
0?
0Q
#924000
1!
b1100 '
18
1?
b1101100 J
1Q
b1101100 W
#928000
0!
08
0?
0Q
#932000
1!
b1011 '
18
1?
b1101101 J
1Q
b1101101 W
#936000
0!
08
0?
0Q
#940000
1!
b1010 '
18
1?
b1101110 J
1Q
b1101110 W
#944000
0!
08
0?
0Q
#948000
1!
b1001 '
18
1?
b1101111 J
1Q
b1101111 W
#952000
0!
08
0?
0Q
#956000
1!
b1000 '
18
1?
b1110000 J
1Q
b1110000 W
#960000
0!
08
0?
0Q
#964000
1!
b111 '
18
1?
b1110001 J
1Q
b1110001 W
#968000
0!
08
0?
0Q
#972000
1!
b110 '
18
1?
b1110010 J
1Q
b1110010 W
#976000
0!
08
0?
0Q
#980000
1!
b101 '
18
1?
b1110011 J
1Q
b1110011 W
#984000
0!
08
0?
0Q
#988000
1!
b100 '
18
1?
b1110100 J
1Q
b1110100 W
#992000
0!
08
0?
0Q
#996000
1!
b11 '
18
1?
b1110101 J
1Q
b1110101 W
#1000000
0!
08
0?
0Q
#1004000
1!
b10 '
18
1?
b1110110 J
1Q
b1110110 W
#1008000
0!
08
0?
0Q
#1012000
1!
b1 '
18
1?
b1110111 J
1Q
b1110111 W
#1016000
0!
08
0?
0Q
#1020000
1!
b0 '
18
1?
b1111000 J
1Q
b1111000 W
#1024000
0!
08
0?
0Q
#1028000
1!
b1 '
18
b1 >
1?
b1111001 J
1Q
b1111001 W
#1032000
0!
08
0?
0Q
#1036000
1!
b10 '
18
1?
b1111010 J
1Q
b1111010 W
#1040000
0!
08
0?
0Q
#1044000
1!
b11 '
18
1?
b1111011 J
1Q
b1111011 W
#1048000
0!
08
0?
0Q
#1052000
1!
b100 '
18
1?
b1111100 J
1Q
b1111100 W
#1056000
0!
08
0?
0Q
#1060000
1!
b101 '
18
1?
b1111101 J
1Q
b1111101 W
#1064000
0!
08
0?
0Q
#1068000
1!
b110 '
18
1?
b1111110 J
1Q
b1111110 W
#1072000
0!
08
0?
0Q
#1076000
1!
b111 '
18
1?
b1111111 J
1Q
b1111111 W
#1080000
0!
08
0?
0Q
#1084000
1!
b1000 '
18
1?
b10000000 J
1Q
b10000000 W
#1088000
0!
08
0?
0Q
#1092000
1!
b1001 '
18
1?
b10000001 J
1Q
b10000001 W
#1096000
0!
08
0?
0Q
#1100000
1!
b1010 '
18
1?
b10000010 J
1Q
b10000010 W
#1104000
0!
08
0?
0Q
#1108000
1!
b1011 '
18
1?
b10000011 J
1Q
b10000011 W
#1112000
0!
08
0?
0Q
#1116000
1!
b1100 '
18
1?
b10000100 J
1Q
b10000100 W
#1120000
0!
08
0?
0Q
#1124000
1!
b1101 '
18
1?
b10000101 J
1Q
b10000101 W
#1128000
0!
08
0?
0Q
#1132000
1!
b1110 '
18
1?
b10000110 J
1Q
b10000110 W
#1136000
0!
08
0?
0Q
#1140000
1!
b1111 '
18
1?
b10000111 J
1Q
b10000111 W
#1144000
0!
08
0?
0Q
#1148000
1!
b1110 '
18
b10 >
1?
b10001000 J
1Q
b10001000 W
#1152000
0!
08
0?
0Q
#1156000
1!
b1101 '
18
1?
b10001001 J
1Q
b10001001 W
#1160000
0!
08
0?
0Q
#1164000
1!
b1100 '
18
1?
b10001010 J
1Q
b10001010 W
#1168000
0!
08
0?
0Q
#1172000
1!
b1011 '
18
1?
b10001011 J
1Q
b10001011 W
#1176000
0!
08
0?
0Q
#1180000
1!
b1010 '
18
1?
b10001100 J
1Q
b10001100 W
#1184000
0!
08
0?
0Q
#1188000
1!
b1001 '
18
1?
b10001101 J
1Q
b10001101 W
#1192000
0!
08
0?
0Q
#1196000
1!
b1000 '
18
1?
b10001110 J
1Q
b10001110 W
#1200000
0!
08
0?
0Q
#1204000
1!
b111 '
18
1?
b10001111 J
1Q
b10001111 W
#1208000
0!
08
0?
0Q
#1212000
1!
b110 '
18
1?
b10010000 J
1Q
b10010000 W
#1216000
0!
08
0?
0Q
#1220000
1!
b101 '
18
1?
b10010001 J
1Q
b10010001 W
#1224000
0!
08
0?
0Q
#1228000
1!
b100 '
18
1?
b10010010 J
1Q
b10010010 W
#1232000
0!
08
0?
0Q
#1236000
1!
b11 '
18
1?
b10010011 J
1Q
b10010011 W
#1240000
0!
08
0?
0Q
#1244000
1!
b10 '
18
1?
b10010100 J
1Q
b10010100 W
#1248000
0!
08
0?
0Q
#1252000
1!
b1 '
18
1?
b10010101 J
1Q
b10010101 W
#1256000
0!
08
0?
0Q
#1260000
1!
b0 '
18
1?
b10010110 J
1P
1Q
b10010110 W
#1264000
0!
08
0?
0Q
#1268000
1!
b1 '
b1111111111111 0
18
b1 >
1?
b10010111 J
1Q
b1111111111111 U
b10010111 W
#1272000
0!
08
0?
0Q
#1276000
1!
b10 '
12
b100 3
b10010111 7
18
1?
b10011000 J
1Q
b10011000 W
b1111111111111 X
0Y
#1280000
0!
08
0?
0Q
#1284000
1!
b11 '
18
1?
b10011001 J
0P
1Q
#1288000
0!
08
0?
0Q
#1292000
1!
b100 '
1/
b0 0
18
1?
0K
1Q
b0 U
#1296000
0!
08
0?
0Q
#1300000
1!
b101 '
18
1?
1Q
b0 X
#1304000
0!
08
0?
0Q
#1308000
1!
b110 '
18
1?
1Q
#1312000
0!
08
0?
0Q
#1316000
1!
0#
b0 '
0/
02
b0 3
b0 4
b0 5
b0 6
b0 7
18
0:
b0 >
1?
0A
b0 J
1Q
0S
b0 W
#1320000
0!
08
0?
0Q
#1324000
1!
02
18
1?
1Q
#1328000
0!
08
0?
0Q
#1332000
1!
02
18
1?
1Q
#1336000
0!
08
0?
0Q
#1340000
1!
02
18
1?
1Q
#1344000
0!
08
0?
0Q
#1348000
1!
02
18
1?
1Q
#1352000
0!
08
0?
0Q
#1356000
1!
02
18
1?
1Q
#1360000
0!
08
0?
0Q
#1364000
1!
02
18
1?
1Q
#1368000
0!
08
0?
0Q
#1372000
1!
02
18
1?
1Q
#1376000
0!
08
0?
0Q
#1380000
1!
02
18
1?
1Q
#1384000
0!
08
0?
0Q
#1388000
1!
02
18
1?
1Q
#1392000
0!
08
0?
0Q
#1396000
1!
02
18
1?
1Q
#1400000
0!
08
0?
0Q
#1404000
1!
02
18
1?
1Q
#1408000
0!
08
0?
0Q
#1412000
1!
02
18
1?
1Q
#1416000
0!
08
0?
0Q
#1420000
1!
02
18
1?
1Q
#1424000
0!
08
0?
0Q
#1428000
1!
02
18
1?
1Q
#1432000
0!
08
0?
0Q
#1436000
1!
02
18
1?
1Q
#1440000
0!
08
0?
0Q
#1444000
1!
02
18
1?
1Q
#1448000
0!
08
0?
0Q
#1452000
1!
02
18
1?
1Q
#1456000
0!
08
0?
0Q
#1460000
1!
02
18
1?
1Q
#1464000
0!
08
0?
0Q
#1468000
1!
02
18
1?
1Q
#1472000
0!
08
0?
0Q
#1476000
1!
02
18
1?
1Q
#1480000
0!
08
0?
0Q
#1484000
1!
02
18
1?
1Q
#1488000
0!
08
0?
0Q
#1492000
1!
02
18
1?
1Q
#1496000
0!
08
0?
0Q
#1500000
1!
02
18
1?
1Q
#1504000
0!
08
0?
0Q
#1508000
1!
02
18
1?
1Q
#1512000
0!
08
0?
0Q
#1516000
1!
02
18
1?
1Q
#1520000
0!
08
0?
0Q
#1524000
1!
02
18
1?
1Q
#1528000
0!
08
0?
0Q
#1532000
1!
02
18
1?
1Q
#1536000
0!
08
0?
0Q
#1540000
1!
02
18
1?
1Q
#1544000
0!
08
0?
0Q
#1548000
1!
02
18
1?
1Q
#1552000
0!
08
0?
0Q
#1556000
1!
02
18
1?
1Q
#1560000
0!
08
0?
0Q
#1564000
1!
02
18
1?
1Q
#1568000
0!
08
0?
0Q
#1572000
1!
02
18
1?
1Q
#1576000
0!
08
0?
0Q
#1580000
1!
02
18
1?
1Q
#1584000
0!
08
0?
0Q
#1588000
1!
02
18
1?
1Q
#1592000
0!
08
0?
0Q
#1596000
1!
02
18
1?
1Q
#1600000
0!
08
0?
0Q
#1604000
1!
02
18
1?
1Q
#1608000
0!
08
0?
0Q
#1612000
1!
02
18
1?
1Q
#1616000
0!
08
0?
0Q
#1620000
1!
02
18
1?
1Q
#1624000
0!
08
0?
0Q
#1628000
1!
02
18
1?
1Q
#1632000
0!
08
0?
0Q
#1636000
1!
02
18
1?
1Q
#1640000
0!
08
0?
0Q
#1644000
1!
02
18
1?
1Q
#1648000
0!
08
0?
0Q
#1652000
1!
02
18
1?
1Q
#1656000
0!
08
0?
0Q
#1660000
1!
02
18
1?
1Q
#1664000
0!
08
0?
0Q
#1668000
1!
02
18
1?
1Q
#1672000
0!
08
0?
0Q
#1676000
1!
02
18
1?
1Q
#1680000
0!
08
0?
0Q
#1684000
1!
02
18
1?
1Q
#1688000
0!
08
0?
0Q
#1692000
1!
02
18
1?
1Q
#1696000
0!
08
0?
0Q
#1700000
1!
02
18
1?
1Q
#1704000
0!
08
0?
0Q
#1708000
1!
02
18
1?
1Q
#1712000
0!
08
0?
0Q
#1716000
1!
02
18
1?
1Q
#1720000
0!
08
0?
0Q
#1724000
1!
02
18
1?
1Q
#1728000
0!
08
0?
0Q
#1732000
1!
02
18
1?
1Q
#1736000
0!
08
0?
0Q
#1740000
1!
02
18
1?
1Q
#1744000
0!
08
0?
0Q
#1748000
1!
02
18
1?
1Q
#1752000
0!
08
0?
0Q
#1756000
1!
02
18
1?
1Q
#1760000
0!
08
0?
0Q
#1764000
1!
02
18
1?
1Q
#1768000
0!
08
0?
0Q
#1772000
1!
02
18
1?
1Q
#1776000
0!
08
0?
0Q
#1780000
1!
02
18
1?
1Q
#1784000
0!
08
0?
0Q
#1788000
1!
02
18
1?
1Q
#1792000
0!
08
0?
0Q
#1796000
1!
02
18
1?
1Q
#1800000
0!
08
0?
0Q
#1804000
1!
02
18
1?
1Q
#1808000
0!
08
0?
0Q
#1812000
1!
02
18
1?
1Q
#1816000
0!
08
0?
0Q
#1820000
1!
02
18
1?
1Q
#1824000
0!
08
0?
0Q
#1828000
1!
02
18
1?
1Q
#1832000
0!
08
0?
0Q
#1836000
1!
02
18
1?
1Q
#1840000
0!
08
0?
0Q
#1844000
1!
02
18
1?
1Q
#1848000
0!
08
0?
0Q
#1852000
1!
02
18
1?
1Q
#1856000
0!
08
0?
0Q
#1860000
1!
02
18
1?
1Q
#1864000
0!
08
0?
0Q
#1868000
1!
02
18
1?
1Q
#1872000
0!
08
0?
0Q
#1876000
1!
02
18
1?
1Q
#1880000
0!
08
0?
0Q
#1884000
1!
02
18
1?
1Q
#1888000
0!
08
0?
0Q
#1892000
1!
02
18
1?
1Q
#1896000
0!
08
0?
0Q
#1900000
1!
02
18
1?
1Q
#1904000
0!
08
0?
0Q
#1908000
1!
02
18
1?
1Q
#1912000
0!
08
0?
0Q
#1916000
1!
02
18
1?
1Q
#1920000
0!
08
0?
0Q
#1924000
1!
02
18
1?
1Q
#1928000
0!
08
0?
0Q
#1932000
1!
02
18
1?
1Q
#1936000
0!
08
0?
0Q
#1940000
1!
02
18
1?
1Q
#1944000
0!
08
0?
0Q
#1948000
1!
02
18
1?
1Q
#1952000
0!
08
0?
0Q
#1956000
1!
02
18
1?
1Q
#1960000
0!
08
0?
0Q
#1964000
1!
02
18
1?
1Q
#1968000
0!
08
0?
0Q
#1972000
1!
02
18
1?
1Q
#1976000
0!
08
0?
0Q
#1980000
1!
02
18
1?
1Q
#1984000
0!
08
0?
0Q
#1988000
1!
02
18
1?
1Q
#1992000
0!
08
0?
0Q
#1996000
1!
02
18
1?
1Q
